{
    "all": [
        {
            "id": 0,
            "hiragana": "ま",
            "katakana": "マ",
            "roman": "ma"
        },
        {
            "id": 1,
            "hiragana": "み",
            "katakana": "ミ",
            "roman": "mi"
        },
        {
            "id": 2,
            "hiragana": "む",
            "katakana": "ム",
            "roman": "mu"
        },
        {
            "id": 3,
            "hiragana": "め",
            "katakana": "メ",
            "roman": "me"
        },
        {
            "id": 4,
            "hiragana": "も",
            "katakana": "モ",
            "roman": "mo"
        }

    ]
}